hospital\healthpersonal\Employee.class
hospital\patient\Patient.class
hospital\exception\RemoveException.class
hospital\healthpersonal\Person.class
hospital\Hospital.class
HospitalClient.class
HospitalTestData.class
hospital\healthpersonal\doctor\Doctor.class
hospital\healthpersonal\doctor\GeneralPractitioner.class
hospital\Department.class
hospital\patient\Diagnosable.class
hospital\healthpersonal\Nurse.class
hospital\healthpersonal\doctor\Surgeon.class
