D:\Skole\Programmering\MappeInnlevering\MappeVudering\src\main\java\hospital\healthpersonal\doctor\Doctor.java
D:\Skole\Programmering\MappeInnlevering\MappeVudering\src\main\java\hospital\healthpersonal\Person.java
D:\Skole\Programmering\MappeInnlevering\MappeVudering\src\main\java\HospitalClient.java
D:\Skole\Programmering\MappeInnlevering\MappeVudering\src\main\java\HospitalTestData.java
D:\Skole\Programmering\MappeInnlevering\MappeVudering\src\main\java\hospital\patient\Diagnosable.java
D:\Skole\Programmering\MappeInnlevering\MappeVudering\src\main\java\hospital\Department.java
D:\Skole\Programmering\MappeInnlevering\MappeVudering\src\main\java\hospital\Hospital.java
D:\Skole\Programmering\MappeInnlevering\MappeVudering\src\main\java\hospital\exception\RemoveException.java
D:\Skole\Programmering\MappeInnlevering\MappeVudering\src\main\java\hospital\healthpersonal\Nurse.java
D:\Skole\Programmering\MappeInnlevering\MappeVudering\src\main\java\hospital\patient\Patient.java
D:\Skole\Programmering\MappeInnlevering\MappeVudering\src\main\java\hospital\healthpersonal\doctor\GeneralPractitioner.java
D:\Skole\Programmering\MappeInnlevering\MappeVudering\src\main\java\hospital\healthpersonal\Employee.java
D:\Skole\Programmering\MappeInnlevering\MappeVudering\src\main\java\hospital\healthpersonal\doctor\Surgeon.java
